Airbnb Seattle
…
calendar$date <- ymd(calendar$date)

calendar <- calendar %>%
  mutate(d_month = format(date, "%m"), d_year = format(date, "%y"))

booked_month <- calendar %>%
  group_by(listing_id, d_month) %>%
  summarize(percent_booked = 1 - (sum(avail_n) / (365)))

# Added up all the days the Airbnb was availible and divided by a year, then did 1 minus that to get the percentage booked

booked_month

## # A tibble: 45,816 x 3
## # Groups:   listing_id [?]
##    listing_id d_month percent_booked
##         <int> <chr>            <dbl>
##  1       3335 01               0.995
##  2       3335 02               0.997
##  3       3335 03               0.915
##  4       3335 04               0.918
##  5       3335 05               0.915
##  6       3335 06               0.918
##  7       3335 07               0.915
##  8       3335 08               0.915
##  9       3335 09               0.918
## 10       3335 10               0.915
## # ... with 45,806 more rows
…
While Airbnbs are more full in January, it appears that there are more unique reviewers in August. This may indicate a higher turnover rate in August with shorter stays per guest compared to fewer, longer-staying guests in Janurary.

How much to charge / How much to pay?

Lets quickly break down the average price by neighborhood (Ill deal with amenities and so forth later):

reviewed_listings %>%
  distinct(id, .keep_all = TRUE) %>%
  group_by(neighbourhood, property_type) %>%
  summarize(avg_p = mean(price))

## # A tibble: 308 x 3
## # Groups:   neighbourhood [?]
##    neighbourhood property_type   avg_p
##    <fct>         <fct>           <dbl>
##  1 ""            Apartment       110. 
##  2 ""            Bed & Breakfast  37.5
##  3 ""            Boat            464. 
##  4 ""            Bungalow         75.0
##  5 ""            Cabin           125. 
##  6 ""            Camper/RV       168. 
##  7 ""            Condominium     104. 
##  8 ""            House           125. 
##  9 ""            Loft            134. 
## 10 ""            Other            88.3
## # ... with 298 more rows
